{
  "command" : "f5-rest-mgmt-tm-ltm-profile-client-ssl",
  "metrics" : [ {
    "tags" : {
      "im.dstype.displaytype" : "boolean",
      "im.name" : "ssl-weak-impl",
      "name" : "ticketbleed",
      "profile-name" : "/Common/clientssl",
      "type" : "Client SSL Profile"
    },
    "value" : {
      "value" : "false"
    }
  }, {
    "tags" : {
      "im.dstype.displaytype" : "boolean",
      "im.name" : "ssl-weak-impl",
      "name" : "ticketbleed",
      "profile-name" : "/Common/clientssl-insecure-compatible",
      "type" : "Client SSL Profile"
    },
    "value" : {
      "value" : "false"
    }
  }, {
    "tags" : {
      "im.dstype.displaytype" : "boolean",
      "im.name" : "ssl-weak-impl",
      "name" : "ticketbleed",
      "profile-name" : "/Common/crypto-server-default-clientssl",
      "type" : "Client SSL Profile"
    },
    "value" : {
      "value" : "false"
    }
  }, {
    "tags" : {
      "im.dstype.displaytype" : "boolean",
      "im.name" : "ssl-weak-impl",
      "name" : "ticketbleed",
      "profile-name" : "/Common/defaultsslprofile.kdlabs.indeni.com",
      "type" : "Client SSL Profile"
    },
    "value" : {
      "value" : "false"
    }
  }, {
    "tags" : {
      "im.dstype.displaytype" : "boolean",
      "im.name" : "ssl-weak-impl",
      "name" : "ticketbleed",
      "profile-name" : "/Common/inheritticketbleed",
      "type" : "Client SSL Profile"
    },
    "value" : {
      "value" : "true"
    }
  }, {
    "tags" : {
      "im.dstype.displaytype" : "boolean",
      "im.name" : "ssl-weak-impl",
      "name" : "ticketbleed",
      "profile-name" : "/Common/strongsslprofile.kdlabs.indeni.com",
      "type" : "Client SSL Profile"
    },
    "value" : {
      "value" : "false"
    }
  }, {
    "tags" : {
      "im.dstype.displaytype" : "boolean",
      "im.name" : "ssl-weak-impl",
      "name" : "ticketbleed",
      "profile-name" : "/Common/ticketbleedprofile",
      "type" : "Client SSL Profile"
    },
    "value" : {
      "value" : "true"
    }
  }, {
    "tags" : {
      "im.dstype.displaytype" : "boolean",
      "im.name" : "ssl-weak-impl",
      "name" : "ticketbleed",
      "profile-name" : "/Common/weaksslprofile.kdlabs.indeni.com",
      "type" : "Client SSL Profile"
    },
    "value" : {
      "value" : "false"
    }
  }, {
    "tags" : {
      "im.dstype.displaytype" : "boolean",
      "im.name" : "ssl-weak-impl",
      "name" : "ticketbleed",
      "profile-name" : "/Common/wom-default-clientssl",
      "type" : "Client SSL Profile"
    },
    "value" : {
      "value" : "false"
    }
  } ]
}
