{
  "command" : "f5-tmsh-list-ltm-rule-recursive",
  "metrics" : [ {
    "tags" : {
      "im.metric-type" : "runtime",
      "im.name" : "f5-matchclass-used",
      "name" : "/Common/_sys_APM_ExchangeSupport_OA_BasicAuth"
    },
    "value" : {
      "value" : "false"
    }
  }, {
    "tags" : {
      "im.metric-type" : "runtime",
      "im.name" : "f5-matchclass-used",
      "name" : "/Common/_sys_APM_ExchangeSupport_OA_NtlmAuth"
    },
    "value" : {
      "value" : "false"
    }
  }, {
    "tags" : {
      "im.metric-type" : "runtime",
      "im.name" : "f5-matchclass-used",
      "name" : "/Common/_sys_APM_ExchangeSupport_helper"
    },
    "value" : {
      "value" : "false"
    }
  }, {
    "tags" : {
      "im.metric-type" : "runtime",
      "im.name" : "f5-matchclass-used",
      "name" : "/Common/_sys_APM_ExchangeSupport_main"
    },
    "value" : {
      "value" : "false"
    }
  }, {
    "tags" : {
      "im.metric-type" : "runtime",
      "im.name" : "f5-matchclass-used",
      "name" : "/Common/_sys_APM_Office365_SAML_BasicAuth"
    },
    "value" : {
      "value" : "false"
    }
  }, {
    "tags" : {
      "im.metric-type" : "runtime",
      "im.name" : "f5-matchclass-used",
      "name" : "/Common/_sys_APM_activesync"
    },
    "value" : {
      "value" : "false"
    }
  }, {
    "tags" : {
      "im.metric-type" : "runtime",
      "im.name" : "f5-matchclass-used",
      "name" : "/Common/_sys_auth_krbdelegate"
    },
    "value" : {
      "value" : "false"
    }
  }, {
    "tags" : {
      "im.metric-type" : "runtime",
      "im.name" : "f5-matchclass-used",
      "name" : "/Common/_sys_auth_ssl_cc_ldap"
    },
    "value" : {
      "value" : "false"
    }
  }, {
    "tags" : {
      "im.metric-type" : "runtime",
      "im.name" : "f5-matchclass-used",
      "name" : "/Common/_sys_auth_ssl_crldp"
    },
    "value" : {
      "value" : "false"
    }
  }, {
    "tags" : {
      "im.metric-type" : "runtime",
      "im.name" : "f5-matchclass-used",
      "name" : "/Common/_sys_auth_ssl_ocsp"
    },
    "value" : {
      "value" : "false"
    }
  }, {
    "tags" : {
      "im.metric-type" : "runtime",
      "im.name" : "f5-matchclass-used",
      "name" : "/Common/_sys_https_redirect"
    },
    "value" : {
      "value" : "false"
    }
  }, {
    "tags" : {
      "im.metric-type" : "runtime",
      "im.name" : "f5-matchclass-used",
      "name" : "/Common/classmatchsample"
    },
    "value" : {
      "value" : "true"
    }
  }, {
    "tags" : {
      "im.metric-type" : "runtime",
      "im.name" : "f5-matchclass-used",
      "name" : "/Common/samplematchclassrule"
    },
    "value" : {
      "value" : "true"
    }
  } ]
}
