{
  "command" : "panos-show-high-availability-all-monitoring",
  "metrics" : [ {
    "tags" : {
      "display-name" : "Cluster Configuration Synced",
      "im.dstype.displaytype" : "boolean",
      "im.name" : "cluster-config-synced",
      "live-config" : "true"
    },
    "value" : "1.0"
  }, {
    "tags" : {
      "display-name" : "Preemption Enabled",
      "im.dstype.displaytype" : "boolean",
      "im.name" : "cluster-preemption-enabled",
      "live-config" : "true"
    },
    "value" : "1.0"
  }, {
    "tags" : {
      "display-name" : "Cluster Member State (this)",
      "im.dstype.displaytype" : "state",
      "im.name" : "cluster-member-active",
      "live-config" : "true",
      "name" : "Firewall Clustering"
    },
    "values" : ["1.0", "1.0", "1.0", "1.0", "1.0", "0.0", "0.0", "0.0"]
  }, {
    "tags" : {
      "display-name" : "Cluster State",
      "im.dstype.displaytype" : "state",
      "im.name" : "cluster-state",
      "live-config" : "true",
      "name" : "Firewall Clustering"
    },
    "value" : "0.0"
  } ]
}
