{
  "command" : "fortios-get-vpn-certificate-local-details",
  "metrics" : [ {
    "tags" : {
      "display-name" : "Certificates Expiration",
      "im.dstype" : "gauge",
      "im.dstype.displaytype" : "date",
      "im.identity-tags" : "name",
      "im.metric-type" : "ts",
      "im.name" : "certificate-expiration",
      "live-config" : "true",
      "name" : "Fortinet_CA_SSL"
    },
    "value" : "1.82405113E9"
  }, {
    "tags" : {
      "display-name" : "Certificates Expiration",
      "im.dstype" : "gauge",
      "im.dstype.displaytype" : "date",
      "im.identity-tags" : "name",
      "im.metric-type" : "ts",
      "im.name" : "certificate-expiration",
      "live-config" : "true",
      "name" : "Fortinet_CA_Untrusted"
    },
    "value" : "1.51647073E9"
  }, {
    "tags" : {
      "display-name" : "Certificates Expiration",
      "im.dstype" : "gauge",
      "im.dstype.displaytype" : "date",
      "im.identity-tags" : "name",
      "im.metric-type" : "ts",
      "im.name" : "certificate-expiration",
      "live-config" : "true",
      "name" : "Fortinet_Factory"
    },
    "value" : "2.147476447E9"
  }, {
    "tags" : {
      "display-name" : "Certificates Expiration",
      "im.dstype" : "gauge",
      "im.dstype.displaytype" : "date",
      "im.identity-tags" : "name",
      "im.metric-type" : "ts",
      "im.name" : "certificate-expiration",
      "live-config" : "true",
      "name" : "Fortinet_SSL"
    },
    "value" : "1.82405113E9"
  }, {
    "tags" : {
      "display-name" : "Certificates Expiration",
      "im.dstype" : "gauge",
      "im.dstype.displaytype" : "date",
      "im.identity-tags" : "name",
      "im.metric-type" : "ts",
      "im.name" : "certificate-expiration",
      "live-config" : "true",
      "name" : "Fortinet_SSL_DSA1024"
    },
    "value" : "1.824051131E9"
  }, {
    "tags" : {
      "display-name" : "Certificates Expiration",
      "im.dstype" : "gauge",
      "im.dstype.displaytype" : "date",
      "im.identity-tags" : "name",
      "im.metric-type" : "ts",
      "im.name" : "certificate-expiration",
      "live-config" : "true",
      "name" : "Fortinet_SSL_DSA2048"
    },
    "value" : "1.824051132E9"
  }, {
    "tags" : {
      "display-name" : "Certificates Expiration",
      "im.dstype" : "gauge",
      "im.dstype.displaytype" : "date",
      "im.identity-tags" : "name",
      "im.metric-type" : "ts",
      "im.name" : "certificate-expiration",
      "live-config" : "true",
      "name" : "Fortinet_SSL_ECDSA256"
    },
    "value" : "1.824051132E9"
  }, {
    "tags" : {
      "display-name" : "Certificates Expiration",
      "im.dstype" : "gauge",
      "im.dstype.displaytype" : "date",
      "im.identity-tags" : "name",
      "im.metric-type" : "ts",
      "im.name" : "certificate-expiration",
      "live-config" : "true",
      "name" : "Fortinet_SSL_ECDSA384"
    },
    "value" : "1.824051132E9"
  }, {
    "tags" : {
      "display-name" : "Certificates Expiration",
      "im.dstype" : "gauge",
      "im.dstype.displaytype" : "date",
      "im.identity-tags" : "name",
      "im.metric-type" : "ts",
      "im.name" : "certificate-expiration",
      "live-config" : "true",
      "name" : "Fortinet_SSL_RSA1024"
    },
    "value" : "1.82405113E9"
  }, {
    "tags" : {
      "display-name" : "Certificates Expiration",
      "im.dstype" : "gauge",
      "im.dstype.displaytype" : "date",
      "im.identity-tags" : "name",
      "im.metric-type" : "ts",
      "im.name" : "certificate-expiration",
      "live-config" : "true",
      "name" : "Fortinet_SSL_RSA2048"
    },
    "value" : "1.824051131E9"
  }, {
    "tags" : {
      "display-name" : "Certificates Expiration",
      "im.dstype" : "gauge",
      "im.dstype.displaytype" : "date",
      "im.identity-tags" : "name",
      "im.metric-type" : "ts",
      "im.name" : "certificate-expiration",
      "live-config" : "true",
      "name" : "Fortinet_Wifi"
    },
    "value" : "1.558692935E9"
  } ]
}
