{
  "command" : "f5-rest-mgmt-tm-sys-hardware",
  "metrics" : [ {
    "tags" : {
      "im.name" : "serial-numbers"
    },
    "value" : [ {
      "serialnumber" : "zz-xxxx-yyyy",
      "name" : "chassis"
    } ]
  }, {
    "tags" : {
      "display-name" : "Hardware Elements",
      "im.dstype.displaytype" : "state",
      "im.identity-tags" : "name",
      "im.name" : "hardware-element-status",
      "live-config" : "true",
      "name" : "Temperature measurement - Index: 1 Location: Main board inlet IC temperature"
    },
    "value" : "1.0"
  }, {
    "tags" : {
      "display-name" : "Hardware Elements",
      "im.dstype.displaytype" : "state",
      "im.identity-tags" : "name",
      "im.name" : "hardware-element-status",
      "live-config" : "true",
      "name" : "Temperature measurement - Index: 2 Location: Main board outlet IC temperature"
    },
    "value" : "1.0"
  }, {
    "tags" : {
      "im.name" : "model"
    },
    "value" : {
      "value" : "4000"
    }
  }, {
    "tags" : {
      "display-name" : "Hardware Elements",
      "im.dstype.displaytype" : "state",
      "im.identity-tags" : "name",
      "im.name" : "hardware-element-status",
      "live-config" : "true",
      "name" : "Temperature measurement - Index: 3 Location: Power supply #1 meas. inlet temperature"
    },
    "value" : "1.0"
  }, {
    "tags" : {
      "display-name" : "Hardware Elements",
      "im.dstype.displaytype" : "state",
      "im.identity-tags" : "name",
      "im.name" : "hardware-element-status",
      "live-config" : "true",
      "name" : "Temperature measurement - Index: 4 Location: Main board near power supplies temperature"
    },
    "value" : "1.0"
  }, {
    "tags" : {
      "display-name" : "Hardware Elements",
      "im.dstype.displaytype" : "state",
      "im.identity-tags" : "name",
      "im.name" : "hardware-element-status",
      "live-config" : "true",
      "name" : "fan-1"
    },
    "value" : "1.0"
  }, {
    "tags" : {
      "display-name" : "Hardware Elements",
      "im.dstype.displaytype" : "state",
      "im.identity-tags" : "name",
      "im.name" : "hardware-element-status",
      "live-config" : "true",
      "name" : "fan-2"
    },
    "value" : "1.0"
  }, {
    "tags" : {
      "display-name" : "Hardware Elements",
      "im.dstype.displaytype" : "state",
      "im.identity-tags" : "name",
      "im.name" : "hardware-element-status",
      "live-config" : "true",
      "name" : "fan-3"
    },
    "value" : "1.0"
  }, {
    "tags" : {
      "display-name" : "Hardware Elements",
      "im.dstype.displaytype" : "state",
      "im.identity-tags" : "name",
      "im.name" : "hardware-element-status",
      "live-config" : "true",
      "name" : "fan-4"
    },
    "value" : "1.0"
  }, {
    "tags" : {
      "display-name" : "Hardware Elements",
      "im.dstype.displaytype" : "state",
      "im.identity-tags" : "name",
      "im.name" : "hardware-element-status",
      "live-config" : "true",
      "name" : "psu-1"
    },
    "value" : "1.0"
  } ]
}
