{
  "command" : "f5-rest-mgmt-tm-sys-cpu-stats",
  "metrics" : [ {
    "tags" : {
      "cpu-id" : "0",
      "cpu-is-avg" : "false",
      "im.dstype.displaytype" : "percentage",
      "im.name" : "cpu-usage",
      "resource-metric" : "true"
    },
    "values" : [ "13", "11", "11", "13", "12", "12", "11", "13", "13", "12", "10", "13", "12", "11", "14", "11", "10", "13", "10", "14", "13", "13", "10", "14", "13", "11", "10", "11", "12", "14", "27", "20", "25", "27", "17", "24", "17", "27", "19", "23", "23", "14", "27", "15", "14", "13", "27", "24", "13", "25", "19", "14", "26", "23", "27", "18", "17", "28", "28", "19", "38", "41", "35", "27", "41", "34", "23", "28", "31", "37", "37", "29", "35", "22", "49", "45", "32", "49", "48", "49", "28", "48", "26", "27", "48", "41", "31", "30", "32", "26", "58", "54", "72", "64", "55", "73", "61", "57", "58", "51", "54", "64", "59", "73", "59", "71", "58", "64", "69", "65", "50", "51", "68", "52", "71", "56", "69", "60", "63", "73", "79", "79", "79", "79", "79", "79", "79", "78", "79", "79", "79", "79", "79", "79", "79", "79", "79", "79", "79", "79", "79", "79", "79", "79", "79", "79", "79", "79", "79", "79", "69", "71", "62", "50", "66", "51", "61", "53", "53", "73", "52", "66", "69", "69", "52", "59", "72", "56", "68", "68", "67", "50", "54", "67", "56", "72", "73", "54", "64", "67", "13", "13", "11", "14", "10", "10", "14", "12", "14", "13", "13", "10", "13", "11", "11", "12", "10", "13", "12", "13", "12", "10", "10", "10", "13", "13", "14", "11", "10", "13", "25", "16", "23", "27", "17", "22", "24", "14", "23", "15", "19", "26", "28", "28", "15", "21", "21", "16", "21", "25", "16", "22", "25", "27", "21", "27", "26", "15", "15", "29" ]
  }, {
    "tags" : {
      "cpu-id" : "1",
      "cpu-is-avg" : "false",
      "im.dstype.displaytype" : "percentage",
      "im.name" : "cpu-usage",
      "resource-metric" : "true"
    },
    "values" : [ "13", "10", "13", "14", "11", "13", "12", "11", "13", "11", "10", "12", "13", "13", "10", "14", "11", "12", "13", "12", "13", "12", "13", "13", "11", "11", "11", "14", "13", "11", "17", "27", "17", "16", "22", "16", "20", "28", "24", "26", "13", "27", "15", "17", "25", "23", "14", "21", "21", "25", "23", "18", "19", "29", "16", "16", "24", "25", "19", "13", "37", "24", "39", "25", "41", "26", "46", "42", "49", "42", "20", "41", "34", "20", "26", "43", "46", "49", "26", "45", "43", "42", "23", "32", "36", "28", "31", "29", "25", "47", "52", "57", "71", "61", "51", "69", "66", "71", "57", "58", "55", "51", "62", "63", "66", "61", "63", "73", "50", "64", "53", "65", "58", "68", "55", "53", "65", "56", "71", "61", "79", "79", "79", "79", "79", "79", "79", "79", "79", "79", "79", "79", "79", "79", "79", "79", "79", "79", "79", "79", "79", "79", "79", "79", "78", "79", "79", "79", "79", "79", "62", "65", "54", "73", "72", "53", "52", "57", "62", "63", "52", "64", "55", "73", "62", "60", "50", "69", "68", "59", "67", "61", "71", "69", "66", "53", "74", "64", "70", "65", "12", "11", "14", "11", "11", "14", "13", "14", "13", "11", "11", "10", "12", "12", "13", "12", "10", "14", "11", "14", "10", "14", "12", "13", "11", "10", "13", "13", "14", "11", "13", "27", "29", "23", "15", "16", "14", "15", "24", "26", "14", "14", "17", "13", "19", "24", "25", "16", "21", "22", "29", "24", "19", "21", "19", "26", "28", "13", "26", "27" ]
  }, {
    "tags" : {
      "cpu-id" : "2",
      "cpu-is-avg" : "false",
      "im.dstype.displaytype" : "percentage",
      "im.name" : "cpu-usage",
      "resource-metric" : "true"
    },
    "values" : [ "10", "10", "10", "13", "13", "11", "13", "10", "13", "14", "12", "13", "11", "12", "11", "13", "10", "13", "14", "10", "12", "12", "11", "10", "14", "13", "13", "13", "11", "12", "16", "24", "14", "20", "29", "18", "16", "15", "27", "16", "26", "22", "19", "24", "18", "27", "24", "28", "22", "22", "25", "21", "23", "18", "22", "15", "26", "22", "22", "17", "44", "21", "23", "42", "37", "44", "39", "47", "26", "25", "22", "39", "23", "38", "34", "38", "47", "38", "41", "37", "29", "38", "30", "43", "20", "46", "40", "23", "26", "48", "59", "72", "71", "73", "58", "52", "67", "67", "54", "66", "58", "51", "72", "59", "74", "54", "65", "50", "63", "71", "61", "58", "50", "62", "73", "57", "65", "54", "72", "52", "79", "79", "79", "79", "79", "79", "79", "79", "79", "79", "79", "79", "79", "79", "79", "79", "79", "79", "79", "79", "79", "79", "79", "78", "79", "79", "79", "79", "79", "79", "56", "63", "62", "70", "54", "56", "60", "71", "57", "51", "72", "70", "70", "73", "58", "70", "68", "59", "69", "64", "60", "66", "55", "64", "72", "69", "54", "51", "55", "74", "10", "10", "10", "14", "12", "13", "11", "14", "10", "13", "10", "14", "14", "11", "11", "11", "10", "14", "13", "11", "14", "12", "10", "13", "12", "11", "12", "11", "11", "12", "27", "19", "18", "13", "28", "29", "14", "18", "29", "14", "15", "28", "20", "25", "14", "20", "24", "15", "21", "18", "22", "28", "21", "25", "20", "20", "23", "23", "21", "24" ]
  }, {
    "tags" : {
      "cpu-id" : "3",
      "cpu-is-avg" : "false",
      "im.dstype.displaytype" : "percentage",
      "im.name" : "cpu-usage",
      "resource-metric" : "true"
    },
    "values" : [ "10", "14", "10", "12", "13", "10", "14", "14", "10", "10", "10", "12", "14", "13", "11", "14", "10", "11", "12", "12", "13", "14", "11", "14", "11", "11", "12", "11", "13", "14", "17", "20", "14", "23", "19", "21", "19", "27", "13", "23", "28", "13", "16", "29", "18", "23", "15", "23", "26", "16", "16", "18", "29", "19", "15", "29", "14", "22", "26", "28", "43", "27", "26", "45", "26", "34", "23", "28", "36", "36", "21", "32", "33", "31", "41", "27", "47", "32", "29", "33", "42", "49", "25", "35", "20", "48", "25", "44", "30", "20", "63", "50", "50", "65", "56", "67", "51", "66", "67", "59", "72", "59", "73", "60", "68", "57", "70", "54", "65", "70", "63", "51", "60", "54", "61", "55", "54", "70", "68", "64", "79", "79", "79", "79", "78", "79", "79", "79", "79", "79", "79", "79", "79", "79", "79", "79", "79", "79", "79", "79", "79", "79", "79", "79", "79", "79", "79", "79", "79", "79", "52", "72", "71", "50", "55", "55", "74", "56", "55", "64", "54", "58", "73", "56", "73", "54", "54", "52", "71", "71", "52", "69", "67", "73", "69", "57", "50", "70", "63", "50", "12", "13", "14", "12", "14", "10", "12", "12", "14", "11", "11", "12", "12", "14", "13", "12", "14", "13", "11", "12", "12", "11", "14", "11", "11", "12", "10", "10", "13", "12", "24", "18", "29", "17", "22", "15", "28", "20", "28", "21", "19", "25", "23", "27", "27", "16", "22", "14", "13", "19", "16", "13", "16", "29", "20", "22", "28", "26", "18", "21" ]
  } ]
}
