{
  "command" : "netobj_objects-clusters.C",
  "metrics" : [ {
    "tags" : {
      "im.metric-type" : "runtime",
      "im.name" : "known-devices"
    },
    "value" : [ {
      "ip" : "10.10.6.21",
      "name" : "lab-CP-GW1-R7730"
    } ]
  }, {
    "tags" : {
      "im.dstype" : "gauge",
      "im.metric-type" : "ts",
      "im.name" : "cluster-preemption-enabled",
      "im.step" : "300"
    },
    "value" : "1.0"
  } ]
}
